	CouponNumber,	CouponUID
	1122001,	11220015
	1122002,	11220022
	1122003,	11220039
	1122004,	11220046
	1122005,	11220053
	1122006,	11220060
	1122007,	11220077
	1122008,	11220084
	1122009,	11220091
	1122010,	11220107
